Introduction to Spatial Modeling with spmodel - 7 Areal Modeling
…
Let’s take note of a few things about this data set. First, the entire structure of the data set is different than all of the other data sets we have seen in previous sections: the data is now areal polygons, not points. Note in the printout of the africa_cont sf object that the Geometry type is now MULTIPOLYGON, indicating that at least some countries in the original world data set are made up of more than one polygon (New Zealand is one such example, as the country is made up of multiple islands, each its own polygon).

africa_cont
## Simple feature collection with 50 features and 10 fields
## Geometry type: MULTIPOLYGON
## Dimension:     XY
## Bounding box:  xmin: -17.62504 ymin: -34.81917 xmax: 51.13387 ymax: 37.34999
## Geodetic CRS:  WGS 84
## # A tibble: 50 × 11
##   iso_a2 name_long  continent region_un subregion type  area_km2     pop lifeExp
## * <chr>  <chr>      <chr>     <chr>     <chr>     <chr>    <dbl>   <dbl>   <dbl>
## 1 TZ     Tanzania   Africa    Africa    Eastern … Sove…  932746.  5.22e7    64.2
## 2 EH     Western S… Africa    Africa    Northern… Inde…   96271. NA         NA  
## 3 CD     Democrati… Africa    Africa    Middle A… Sove… 2323492.  7.37e7    58.8
## 4 SO     Somalia    Africa    Africa    Eastern … Sove…  484333.  1.35e7    55.5
## 5 KE     Kenya      Africa    Africa    Eastern … Sove…  590837.  4.60e7    66.2
## 6 SD     Sudan      Africa    Africa    Northern… Sove… 1850886.  3.77e7    64.0
## # ℹ 44 more rows
## # ℹ 2 more variables: gdpPercap <dbl>, geom <MULTIPOLYGON [°]>
…
glance(mod_car)
## # A tibble: 1 × 10
##       n     p  npar value   AIC  AICc   BIC logLik deviance pseudo.r.squared
##   <int> <dbl> <int> <dbl> <dbl> <dbl> <dbl>  <dbl>    <dbl>            <dbl>
## 1    48     1     2  296.  300.  300.  304.  -148.     46.8                0

We can also obtain diagnostic statistics with:

augment(mod_car)
## Simple feature collection with 48 features and 6 fields
## Geometry type: MULTIPOLYGON
## Dimension:     XY
## Bounding box:  xmin: -17.62504 ymin: -34.81917 xmax: 51.13387 ymax: 37.34999
## Geodetic CRS:  WGS 84
## # A tibble: 48 × 7
##   lifeExp .fitted .resid   .hat .cooksd .std.resid                          geom
## *   <dbl>   <dbl>  <dbl>  <dbl>   <dbl>      <dbl>            <MULTIPOLYGON [°]>
## 1    64.2    61.2   2.96 0.0288 0.0245       0.910 (((33.90371 -0.95, 31.86617 …
## 2    58.8    61.2  -2.42 0.0308 0.00701     -0.470 (((29.34 -4.499983, 29.27638…
## 3    55.5    61.2  -5.73 0.0205 0.0278      -1.15  (((41.58513 -1.68325, 41.810…
## 4    66.2    61.2   5.04 0.0237 0.0396       1.28  (((39.20222 -4.67677, 39.604…
## 5    64.0    61.2   2.80 0.0267 0.0102       0.610 (((23.88711 8.619775, 24.194…
## 6    52.2    61.2  -9.00 0.0237 0.0927      -1.95  (((23.83766 19.58047, 19.849…
## # ℹ 42 more rows
…
