Introduction to Spatial Modeling with spmodel - 1 Spatial Data Exploration
…
The sf package in R can store objects with spatial information as sf simple feature objects. While we will not review simple feature objects or the sf package in depth, we will discuss a couple of important components of sf objects.

1.3.1 Geometry Type

The two geometry types that we will encounter throughout these materials are POINT geometries and POLYGON geometries, though other types can be found at https://r-spatial.github.io/sf/articles/sf1.html#simple-feature-geometry-types.

The POLYGON geometry type provides polygonal boundaries for each spatial location. An example of an sf object with POLYGON geometry is the seal data in the spmodel package:

seal
## Simple feature collection with 62 features and 1 field
## Geometry type: POLYGON
## Dimension:     XY
## Bounding box:  xmin: 913618.8 ymin: 1007542 xmax: 1116002 ymax: 1145054
## Projected CRS: NAD83 / Alaska Albers
## # A tibble: 62 × 2
##   log_trend                                                             geometry
##       <dbl>                                                        <POLYGON [m]>
## 1  NA       ((1035002 1054710, 1035002 1054542, 1035002 1053542, 1035002 105254…
## 2  -0.282   ((1037002 1039492, 1037006 1039490, 1037017 1039492, 1037035 103949…
## 3  -0.00121 ((1070158 1030216, 1070185 1030207, 1070187 1030207, 1070211 103020…
## 4   0.0354  ((1054906 1034826, 1054931 1034821, 1054936 1034822, 1055001 103482…
## 5  -0.0160  ((1025142 1056940, 1025184 1056889, 1025222 1056836, 1025256 105678…
## 6   0.0872  ((1026035 1044623, 1026037 1044605, 1026072 1044610, 1026083 104461…
## # ℹ 56 more rows

The geometry column shows a series of points for each row; these points can be connected with line segments to form a polygon. Data on these seals were collected in polygon areas, not at specific points, so a POLYGON geometry makes more sense for this data.

1.3.2 Converting data.frame to sf

If we have a data.frame object that we wish to convert to an POINT referenced sf object, we can use the st_as_sf() function from the sf package. For example, the caribou data frame in spmodel is of class data.frame, but has columns for spatial coordinates called x and y:

caribou
## # A tibble: 30 × 5
##   water tarp      z     x     y
##   <fct> <fct> <dbl> <dbl> <dbl>
## 1 Y     clear  2.42     1     6
## 2 Y     shade  2.44     2     6
## 3 Y     none   1.81     3     6
## 4 N     clear  1.97     4     6
## 5 N     shade  2.38     5     6
## 6 Y     none   2.22     1     5
## # ℹ 24 more rows

We can convert the caribou data frame to an sf object using the st_as_sf() function from the sf package, providing the column names for the spatial coordinates as an argument to coords:

caribou_sf <- caribou |> sf::st_as_sf(coords = c("x", "y"))
caribou_sf
## Simple feature collection with 30 features and 3 fields
## Geometry type: POINT
## Dimension:     XY
## Bounding box:  xmin: 1 ymin: 1 xmax: 5 ymax: 6
## CRS:           NA
## # A tibble: 30 × 4
##   water tarp      z geometry
##   <fct> <fct> <dbl>  <POINT>
## 1 Y     clear  2.42    (1 6)
## 2 Y     shade  2.44    (2 6)
## 3 Y     none   1.81    (3 6)
## 4 N     clear  1.97    (4 6)
## 5 N     shade  2.38    (5 6)
## 6 Y     none   2.22    (1 5)
## # ℹ 24 more rows
…
