Introduction to Spatial Modeling with spmodel - 6 Spatial Logistic Regression
…
glance(mod_spatial)
## # A tibble: 1 × 10
##       n     p  npar value   AIC  AICc   BIC logLik deviance pseudo.r.squared
##   <int> <dbl> <int> <dbl> <dbl> <dbl> <dbl>  <dbl>    <dbl>            <dbl>
## 1   218     3     3  676.  682.  683.  693.  -338.     176.           0.0627

And, we can augment the model for model diagnostics that we can use to make diagnostic plots:

augment(mod_spatial)
## Simple feature collection with 218 features and 8 fields
## Geometry type: POINT
## Dimension:     XY
## Bounding box:  xmin: 269085 ymin: 1416151 xmax: 419057.4 ymax: 1541016
## Projected CRS: NAD83 / Alaska Albers
## # A tibble: 218 × 9
##   presence  elev strat .fitted .resid    .hat  .cooksd .std.resid
## * <fct>    <dbl> <chr>   <dbl>  <dbl>   <dbl>    <dbl>      <dbl>
## 1 0         469. L       -1.95 -0.516 0.0476  0.00465      -0.528
## 2 0         362. L       -2.70 -0.361 0.0123  0.000548     -0.363
## 3 0         173. M       -1.96 -0.514 0.00455 0.000405     -0.516
## 4 0         280. L       -3.15 -0.290 0.00413 0.000117     -0.291
## 5 0         620. L       -1.19 -0.728 0.168   0.0427       -0.798
## 6 0         164. M       -1.71 -0.576 0.00534 0.000598     -0.578
## # ℹ 212 more rows
## # ℹ 1 more variable: geometry <POINT [m]>

Note that, in the augmented output, the .fitted column gives fitted values on the log odds scale. If we want these to be on the probability scale, we can either add an argument to augment:

augment(mod_spatial, type.predict = "response")
## Simple feature collection with 218 features and 8 fields
## Geometry type: POINT
## Dimension:     XY
## Bounding box:  xmin: 269085 ymin: 1416151 xmax: 419057.4 ymax: 1541016
## Projected CRS: NAD83 / Alaska Albers
## # A tibble: 218 × 9
##   presence  elev strat .fitted .resid    .hat  .cooksd .std.resid
## * <fct>    <dbl> <chr>   <dbl>  <dbl>   <dbl>    <dbl>      <dbl>
## 1 0         469. L      0.125  -0.516 0.0476  0.00465      -0.528
## 2 0         362. L      0.0630 -0.361 0.0123  0.000548     -0.363
## 3 0         173. M      0.124  -0.514 0.00455 0.000405     -0.516
## 4 0         280. L      0.0412 -0.290 0.00413 0.000117     -0.291
## 5 0         620. L      0.233  -0.728 0.168   0.0427       -0.798
## 6 0         164. M      0.153  -0.576 0.00534 0.000598     -0.578
## # ℹ 212 more rows
## # ℹ 1 more variable: geometry <POINT [m]>

Or, we can backtransform manually using the fact that:

\[
\pi_i = \frac{e^{\text{logodds}(\pi_i)}}{1 + e^{\text{logodds}(\pi_i)}}
\tag{6.4}\]

augment(mod_spatial) |> mutate(.fitted_back = exp(.fitted) / (1 + exp(.fitted))) |>
  relocate(.fitted_back)
## Simple feature collection with 218 features and 9 fields
## Geometry type: POINT
## Dimension:     XY
## Bounding box:  xmin: 269085 ymin: 1416151 xmax: 419057.4 ymax: 1541016
## Projected CRS: NAD83 / Alaska Albers
## # A tibble: 218 × 10
##   .fitted_back presence  elev strat .fitted .resid    .hat  .cooksd .std.resid
##          <dbl> <fct>    <dbl> <chr>   <dbl>  <dbl>   <dbl>    <dbl>      <dbl>
## 1       0.125  0         469. L       -1.95 -0.516 0.0476  0.00465      -0.528
## 2       0.0630 0         362. L       -2.70 -0.361 0.0123  0.000548     -0.363
## 3       0.124  0         173. M       -1.96 -0.514 0.00455 0.000405     -0.516
## 4       0.0412 0         280. L       -3.15 -0.290 0.00413 0.000117     -0.291
## 5       0.233  0         620. L       -1.19 -0.728 0.168   0.0427       -0.798
## 6       0.153  0         164. M       -1.71 -0.576 0.00534 0.000598     -0.578
## # ℹ 212 more rows
## # ℹ 1 more variable: geometry <POINT [m]>
…
Conceptually, the predictions for the log odds of moose presence are found in a similar fashion to the way that the predictions were calculated from a model with normally distributed random errors in Chapter 5. That is, for a particular spatial location we wish to predict for, we use the estimated log odds of presence for locations that we did observe to predict our location of interest’s log odds of presence. Locations that are closer generally have more weight than locations that are further away when there is evidence of spatial correlation.

We can either use augment() or predict() to obtain the predicted log odds of moose presence at these 100 unsampled spatial locations. If the locations we wish to predict at are not in the data frame used to fit the model, then we provide a newdata argument that is a data frame (or, in this case, an sf object) that has the same structure as the data used to fit the model (including values for all predictors in the model and the appropriate coordinates).

augment(mod_spatial, newdata = moose_preds)
## Simple feature collection with 100 features and 3 fields
## Geometry type: POINT
## Dimension:     XY
## Bounding box:  xmin: 269386.2 ymin: 1418453 xmax: 419976.2 ymax: 1541763
## Projected CRS: NAD83 / Alaska Albers
## # A tibble: 100 × 4
##    elev strat .fitted           geometry
## * <dbl> <chr>   <dbl>        <POINT [m]>
## 1  143. L      0.0666 (401239.6 1436192)
## 2  324. L     -0.791  (352640.6 1490695)
## 3  158. L     -1.60   (360954.9 1491590)
## 4  221. M     -0.832  (291839.8 1466091)
## 5  209. M      1.38   (310991.9 1441630)
## 6  218. L     -2.59   (304473.8 1512103)
## # ℹ 94 more rows
…
