Introduction to Spatial Modeling with spmodel - 4 Model Assumptions
…
As an example, we fit a spatial linear model with the spherical covariance function and with NROOM, NBATH, SQFT, LOTSZ, and AGE as predictors in the model.

mod_lin <- splm(PRICE ~ NROOM + NBATH + SQFT + LOTSZ,
                data = baltimore_sf, spcov_type = "spherical")

To obtain the standardized residuals and the fitted values for the model, we augment() mod_lin.

mod_lin_aug <- augment(mod_lin)
mod_lin_aug
## Simple feature collection with 211 features and 10 fields
## Geometry type: POINT
## Dimension:     XY
## Bounding box:  xmin: 860 ymin: 505.5 xmax: 987.5 ymax: 581
## CRS:           NA
## # A tibble: 211 × 11
##   PRICE NROOM NBATH  SQFT LOTSZ .fitted .resid    .hat  .cooksd .std.resid
## * <dbl> <dbl> <dbl> <dbl> <dbl>   <dbl>  <dbl>   <dbl>    <dbl>      <dbl>
## 1  47       4   1    11.2   5.7    48.3  -1.31 0.00926 0.0109        2.41 
## 2 113       7   2.5  28.9 280.     91.2  21.8  0.0384  0.0127        1.26 
## 3 165       7   2.5  30.6  70.6    74.2  90.8  0.0375  0.255         5.72 
## 4 104.      7   2.5  26.1 175.     82.3  22.0  0.0156  0.000652      0.454
## 5  62.5     7   1.5  22.0 108.     68.2  -5.70 0.0205  0.00721      -1.31 
## 6  70       6   2.5  39.4 140.     78.5  -8.46 0.0476  0.0301       -1.73 
## # ℹ 205 more rows
## # ℹ 1 more variable: geometry <POINT>
…
We have actually already seen this in the toy example given for the normality assumption. With no predictors in the model, we saw that normality was violated. However, after we introduced the predictor \(x\) into the mean structure of the model, the residuals no longer appeared skewed.

As another example, suppose that we fit a spatial linear model to the baltimore housing data set with PRICE as the response and SQFT as the only predictor. Making a plot of the standardized residuals vs. the fitted values, we see that there is a strong violation of the “constant variance” part of the stationarity assumption.

mod_one <- splm(PRICE ~ SQFT,
                data = baltimore_sf, spcov_type = "spherical")
mod_one_aug <- augment(mod_one)
mod_one_aug
## Simple feature collection with 211 features and 7 fields
## Geometry type: POINT
## Dimension:     XY
## Bounding box:  xmin: 860 ymin: 505.5 xmax: 987.5 ymax: 581
## CRS:           NA
## # A tibble: 211 × 8
##   PRICE  SQFT .fitted .resid    .hat .cooksd .std.resid
## * <dbl> <dbl>   <dbl>  <dbl>   <dbl>   <dbl>      <dbl>
## 1  47    11.2    73.1  -26.1 0.00692 0.0131       1.94 
## 2 113    28.9    88.0   25.0 0.00898 0.0209       2.15 
## 3 165    30.6    89.4   75.6 0.0141  0.146        4.51 
## 4 104.   26.1    85.6   18.7 0.00742 0.00206      0.743
## 5  62.5  22.0    82.2  -19.7 0.00407 0.00465     -1.51 
## 6  70    39.4    96.8  -26.8 0.0214  0.0531      -2.20 
## # ℹ 205 more rows
## # ℹ 1 more variable: geometry <POINT>
…
