Introduction to Spatial Modeling with spmodel - 3 Modeling Point Data
…
library(spmodel)
library(sf)
library(tidyverse)
library(broom)
theme_set(theme_minimal()) ## set the default theme

The purpose of this section is to introduce the spatial linear model for data collected at point locations in space. We begin by fitting a model to the caribou data set in the spmodel package. After we fit such a model with the spmodel package, we more formally discuss the difference between fitting a spatial model and fitting a model with only independent random errors. We then discuss the interpretation of model coefficients, interpretation of spatial covariance parameters, and the interpretation of model fit statistics like AIC.

3.1 Motivation

The caribou data set contains 30 observations from a caribou forage experiment in Alaska. The data, provided by Elizabeth Lenart of the Alaska Department of Fish and Game, is loaded with the spmodel package:

caribou
## # A tibble: 30 × 5
##   water tarp      z     x     y
##   <fct> <fct> <dbl> <dbl> <dbl>
## 1 Y     clear  2.42     1     6
## 2 Y     shade  2.44     2     6
## 3 Y     none   1.81     3     6
## 4 N     clear  1.97     4     6
## 5 N     shade  2.38     5     6
## 6 Y     none   2.22     1     5
## # ℹ 24 more rows
…
