Introduction to Spatial Modeling with spmodel - 5 Prediction
…
A data frame for the other 190 locations can be made with:

sulfate_complete <- sulfate |> slice(-(1:7))

If we want to predict the sulfate concentration at the locations in sulfate_all_na, we can use the newdata argument to augment(), assuming that newdata has the same structure as the data used to fit the model.

mod_sulf_more_na <- splm(sulfate ~ 1, data = sulfate_complete,
                         spcov_type = "gaussian")
augment(mod_sulf_more_na, newdata = sulfate_all_na)
## Simple feature collection with 7 features and 1 field
## Geometry type: POINT
## Dimension:     XY
## Bounding box:  xmin: -1437776 ymin: 1080571 xmax: 914593.6 ymax: 1568022
## Projected CRS: NAD83 / Conus Albers
## # A tibble: 7 × 2
##   .fitted           geometry
## *   <dbl>        <POINT [m]>
## 1    15.7 (817738.8 1080571)
## 2    16.8 (914593.6 1295545)
## 3    16.7 (359574.1 1178228)
## 4    16.3 (265331.9 1239089)
## 5    17.9 (304528.8 1453636)
## 6    16.0 (162932.8 1451625)
## # ℹ 1 more row

We obtain predictions for sulfate concentration at these 7 locations based on the model fit with the sulfate_complete data in the .fitted column of the output. We can also obtain prediction intervals with an additional interval argument:

augment(mod_sulf_more_na, newdata = sulfate_all_na, interval = "prediction",
        level = 0.95)
## Simple feature collection with 7 features and 3 fields
## Geometry type: POINT
## Dimension:     XY
## Bounding box:  xmin: -1437776 ymin: 1080571 xmax: 914593.6 ymax: 1568022
## Projected CRS: NAD83 / Conus Albers
## # A tibble: 7 × 4
##   .fitted .lower .upper           geometry
## *   <dbl>  <dbl>  <dbl>        <POINT [m]>
## 1    15.7   8.04   23.4 (817738.8 1080571)
## 2    16.8   9.18   24.4 (914593.6 1295545)
## 3    16.7   9.07   24.4 (359574.1 1178228)
## 4    16.3   8.60   24.0 (265331.9 1239089)
## 5    17.9  10.2    25.5 (304528.8 1453636)
## 6    16.0   8.24   23.7 (162932.8 1451625)
## # ℹ 1 more row
…
